// Jest Snapshot v1, https://goo.gl/fbAQLP

exports[`Sign-in page matches snapshot 1`] = `
<DocumentFragment>
  .emotion-0 {
  display: -webkit-box;
  display: -webkit-flex;
  display: -ms-flexbox;
  display: flex;
  -webkit-flex-direction: column;
  -ms-flex-direction: column;
  flex-direction: column;
  padding-bottom: 4rem;
}

@media screen and (min-width:64em) {
  .emotion-0 {
    padding-bottom: 0rem;
  }
}

<div
    class="emotion-0"
  >
    <div
      class="auth-form row align-items-center signIn"
    >
      <div
        class="col-12 col-lg-5 leftPannel d-flex align-items-center justify-content-center"
      >
        <a
          href="/"
        >
          <img
            alt="JoGL icon"
            class="logo"
            src="/images/logo.svg"
          />
        </a>
      </div>
      <div
        class="col-12 col-lg-7 rightPannel"
      >
        <div
          class="form-content"
        >
          <div
            class="form-header"
          >
            <h2
              class="form-title"
              id="signModalLabel"
            >
              Sign in
            </h2>
            <p>
              Enter your details below.
            </p>
          </div>
          <div
            class="form-body"
          >
            <form>
              <div
                class="form-group"
              >
                <label
                  class="form-check-label"
                  for="email"
                >
                  Email
                </label>
                <input
                  class="form-control"
                  id="email"
                  name="email"
                  placeholder="your.email@domain.com"
                  type="email"
                />
              </div>
              <div
                class="form-group"
              >
                <div
                  class="row rowPwd"
                >
                  <div
                    class="col-5"
                  >
                    <label
                      class="form-check-label"
                      for="password"
                    >
                      Password
                    </label>
                  </div>
                  <div
                    class="col-7 text-right forgotPwd"
                  >
                    <a
                      class="nav-link"
                      href="/auth/forgot-password"
                      tabindex="-1"
                    >
                      Forgot your password ?
                    </a>
                  </div>
                </div>
                <input
                  class="form-control"
                  id="password"
                  name="password"
                  placeholder="Your password"
                  type="password"
                />
              </div>
              <div
                class="goToSignUp"
              >
                <span>
                  Don’t have an account?
                </span>
                <span
                  class="goToSignUp--signup"
                >
                  <a
                    class="nav-link"
                    href="/signup"
                  >
                    Sign up
                  </a>
                </span>
              </div>
              <button
                class="btn btn-primary btn-block"
                color="primary"
                data-testid="signin-button"
                type="submit"
              >
                Sign in
              </button>
            </form>
          </div>
        </div>
      </div>
    </div>
  </div>
</DocumentFragment>
`;
